<?xml version="1.0" encoding="utf-8"?>
<!-- Generator: Adobe Illustrator 21.1.0, SVG Export Plug-In . SVG Version: 6.00 Build 0)  -->
<svg version="1.1" id="Carte_professionnelle" xmlns="http://www.w3.org/2000/svg" xmlns:xlink="http://www.w3.org/1999/xlink"
	 x="0px" y="0px" viewBox="0 0 269.6 93.7" style="enable-background:new 0 0 269.6 93.7;" xml:space="preserve">
<style type="text/css">
	.st0{fill:#464C3E;}
	.st1{fill:#95C11F;}
	.st2{fill:#FFFFFF;}
</style>
<g>
	<g>
		<path class="st0" d="M225.5,0.3c-10.1,0-14.4,8.4-14.4,14.3c0,6.6,4.2,14.4,14.2,14.4c8.8,0,14.6-6.8,14.6-15
			C240,5.5,233.8,0.3,225.5,0.3z M226.3,27.7c-6.6,0-11.7-5.5-11.7-14c0-8,4.6-12.1,10.7-12.1c5.8,0,11.2,4.7,11.2,13.5
			C236.4,25.7,229.6,27.7,226.3,27.7z"/>
		<path class="st0" d="M133.4,2.6c-0.6-0.5-2.2-2.1-6.8-2.1c-0.4,0-2,0-2.9,0c0,0,0,0,0,0h-3.5c0,0.1,0,0.3,0.1,0.4
			c0.2,1.5,0.2,21.3,0.2,21.3c0,2.7-0.1,5.3-0.2,6.2c0,0.1,0,0.3-0.1,0.4h3.5c0-0.1,0-0.3-0.1-0.4c-0.2-1.5-0.2-21.3-0.2-21.3
			c0-2.2,0-4.3,0.1-5.5c0.7,0,1.7,0,1.8,0c0.8,0,3.1-0.1,5,1.8c1.9,2,2.1,4.4,2.1,5.6c0,3.4-2.8,6-6.3,6c-0.8,0-1,0-1,0.3
			c0,0.2,0.2,0.3,0.4,0.3c0.2,0,0.6,0,0.8,0c5.2,0,9-3.5,9-8.7C135.2,5,134.2,3.4,133.4,2.6z"/>
		<path class="st0" d="M170.5,12.8l-1-0.8C166,9.3,165,7.9,165,5.8c0-2.7,2-4.2,4.5-4.2c3.4,0,4.4,1.5,4.6,1.9
			c0.2,0.4,0.4,1.4,0.5,1.8c0,0.3,0.1,0.5,0.3,0.5c0.2,0,0.3-0.3,0.3-0.8c0-2.5,0.1-3.7,0.1-3.9c0-0.2-0.1-0.3-0.4-0.3
			c-0.3,0-0.6,0-1.3-0.2c-0.9-0.2-2-0.4-3.4-0.4c-4.7,0-7.6,2.7-7.6,6.6c0,2.5,0.9,4.8,4.8,8l1.6,1.4c3.2,2.6,4.2,4.1,4.2,6.6
			c0,2.3-1.7,4.9-5.2,4.9c-2.5,0-4.9-1-5.4-3.7c-0.1-0.5-0.1-1-0.1-1.4c0-0.3,0-0.4-0.3-0.4c-0.2,0-0.3,0.2-0.3,0.6
			c0,0.6-0.2,2.1-0.2,3.9c0,1,0,1.1,0.6,1.4c1.5,0.7,3.2,1,4.9,1c2,0,4-0.4,5.5-1.5c2.5-1.8,3.1-4.6,3.1-6.1
			C175.9,18.5,174.9,16.2,170.5,12.8z"/>
		<path class="st0" d="M190.7,12.8l-1-0.8c-3.5-2.8-4.5-4.1-4.5-6.2c0-2.7,2-4.3,4.5-4.3c3.4,0,4.4,1.5,4.6,1.9
			c0.2,0.4,0.4,1.4,0.5,1.8c0,0.3,0.1,0.5,0.3,0.5c0.2,0,0.3-0.3,0.3-0.8c0-2.5,0.1-3.7,0.1-3.9c0-0.2-0.1-0.3-0.4-0.3
			c-0.3,0-0.6,0-1.3-0.2c-0.9-0.2-2-0.4-3.4-0.4c-4.7,0-7.6,2.7-7.6,6.6c0,2.5,0.9,4.8,4.8,8l1.7,1.4c3.1,2.6,4.2,4.1,4.2,6.6
			c0,2.3-1.7,4.9-5.2,4.9c-2.5,0-4.9-1-5.4-3.7c-0.1-0.5-0.1-1-0.1-1.4c0-0.3,0-0.4-0.3-0.4c-0.2,0-0.3,0.2-0.3,0.6
			c0,0.6-0.2,2.1-0.2,3.9c0,1,0,1.1,0.5,1.4c1.5,0.7,3.2,1,4.9,1c2,0,4-0.4,5.5-1.5c2.5-1.8,3.1-4.6,3.1-6.1
			C196,18.5,195,16.2,190.7,12.8z"/>
		<path class="st0" d="M147,1.3c-0.4-1.1-0.6-1.3-0.8-1.3c-0.2,0-0.4,0.2-0.8,1.4c0,0-8.8,26.9-9.1,27.4h2.5
			c0.1-0.4,6.5-22.9,6.5-22.9c0.2-0.5,0.4-0.5,0.5,0l3.5,9.9c0,0.1,0,0.3-0.1,0.3H144l-0.3,1.3h6c0.2,0,0.3,0.1,0.3,0.2l3.2,11.2
			h3.7C156.5,28.3,147.6,2.7,147,1.3z"/>
		<path class="st0" d="M206,17.6v-5.8c0-3.5,0-9.3,0.2-10.8c0-0.1,0-0.3,0.1-0.4h-3.6c0,0.1,0,0.3,0.1,0.4c0.2,1.5,0.2,7.3,0.2,10.8
			v5.8c0,3.5,0,9.3-0.2,10.8c0,0.1,0,0.3-0.1,0.4h3.6c0-0.1,0-0.3-0.1-0.4C206,26.9,206,21.1,206,17.6z"/>
		<path class="st0" d="M266.7,0.5c0.3,0.5,0.2,3.5,0.2,4.7l0.4,18.6c-1.2-1.2-5.2-6.2-8.8-10.1c-5.6-6.1-11.1-12-11.7-12.6
			c-0.4-0.4-1-1.2-1.3-1.2c-0.3,0-0.4,0.4-0.4,1.8l0,21c0,1.4,0,5.3-0.1,6h2.6c-0.2-0.6-0.2-4.4-0.2-5.6l-0.5-17.6
			c1.2,1.3,5.3,5.9,9.6,10.5c3.9,4.2,9.2,10.1,9.6,10.5c1.9,1.9,2.4,2.8,2.7,2.8c0.3,0,0.3-0.2,0.3-2.6L269.1,5c0-1.1,0-3.9,0.2-4.5
			H266.7z"/>
	</g>
	<g>
		<path class="st0" d="M151.2,35.7c-10.1,0-14.5,8.4-14.5,14.3c0,6.6,4.2,14.4,14.2,14.4c8.8,0,14.6-6.8,14.6-15
			C165.7,40.9,159.5,35.7,151.2,35.7z M152,63.1c-6.6,0-11.7-5.5-11.7-14c0-8,4.6-12.1,10.7-12.1c5.8,0,11.2,4.7,11.2,13.5
			C162.1,61.2,155.3,63.1,152,63.1z"/>
		<path class="st0" d="M127.7,48.2l-1-0.8c-3.5-2.8-4.5-4.1-4.5-6.2c0-2.7,2-4.3,4.5-4.3c3.4,0,4.4,1.5,4.6,1.9
			c0.2,0.4,0.4,1.4,0.5,1.8c0,0.3,0.1,0.5,0.3,0.5c0.2,0,0.3-0.3,0.3-0.8c0-2.5,0.1-3.7,0.1-3.9c0-0.2-0.1-0.3-0.4-0.3
			c-0.3,0-0.6,0-1.3-0.2c-0.9-0.2-2-0.4-3.4-0.4c-4.7,0-7.6,2.7-7.6,6.6c0,2.5,0.9,4.8,4.8,8l1.7,1.4c3.2,2.6,4.2,4.1,4.2,6.6
			c0,2.3-1.7,4.9-5.2,4.9c-2.5,0-4.9-1-5.4-3.7c-0.1-0.5-0.1-1-0.1-1.4c0-0.3,0-0.4-0.3-0.4c-0.2,0-0.3,0.2-0.3,0.6
			c0,0.6-0.2,2.1-0.2,3.9c0,1,0,1.1,0.6,1.4c1.5,0.7,3.2,1,4.9,1c2,0,4-0.4,5.5-1.5c2.5-1.8,3.1-4.6,3.1-6.1
			C133,53.9,132,51.7,127.7,48.2z"/>
		<path class="st0" d="M224.6,53.1v-5.8c0-3.5,0-9.3,0.2-10.8c0-0.1,0-0.3,0.1-0.4h-3.6c0,0.1,0,0.3,0.1,0.4
			c0.2,1.5,0.2,7.3,0.2,10.8v5.8c0,3.5,0,9.3-0.2,10.8c0,0.1,0,0.3-0.1,0.4h3.6c0-0.1,0-0.3-0.1-0.4
			C224.6,62.4,224.6,56.6,224.6,53.1z"/>
		<path class="st0" d="M188.7,36c0.2,0.3,0.3,0.8,0.3,1.4c0.1,1.2,0.1,3.7,0.1,9.4v4.6c0,3.8-0.4,6.9-2.1,8.9
			c-1.3,1.6-3.5,2.6-5.7,2.6c-2.1,0-3.7-0.3-5.5-2c-1.6-1.5-2.7-3.8-2.7-9v-5.1c0-5.7,0-8.2,0.1-9.4c0-0.6,0.1-1,0.3-1.4h-3.9
			c0.2,0.3,0.3,0.8,0.3,1.4c0.1,1.2,0.1,3.7,0.1,9.4v5.3c0,5.3,1.4,7.9,3.2,9.6c2.6,2.4,6.3,2.6,7.5,2.6c2.2,0,4.9-0.4,7.5-2.7
			c2.9-2.6,3.4-7,3.4-10.9v-3.9c0-5.7,0-8.2,0.1-9.4c0-0.6,0.1-1,0.3-1.4H188.7z"/>
		<path class="st0" d="M218.2,63.9c-0.2,0-0.7,0-1.4-0.1c-0.9-0.1-2.6-0.7-4.5-2.6c-2.1-2.3-5.5-10.3-5.8-10.7c3-1.3,5-4.2,5-7.9
			c0-1.9-1-3.6-1.8-4.4c-0.6-0.6-2.2-2.1-6.8-2.1c-0.4,0-2,0-2.9,0c0,0,0,0,0,0h-3.5c0,0.1,0,0.3,0.1,0.4c0.2,1.5,0.2,21.3,0.2,21.3
			c0,2.7-0.1,5.3-0.2,6.2c0,0.1,0,0.3-0.1,0.4h3.5c0-0.1,0-0.3,0-0.4c-0.2-1.5-0.2-21.3-0.2-21.3c0-2.2,0-4.3,0.1-5.5
			c0.7,0,1.7,0,1.7,0c0.8,0,3.1-0.1,5,1.8c1.9,2,2,4.4,2,5.6c0,3.4-2.8,6-6.3,6c-0.8,0-1,0-1,0.3c0,0.2,0.2,0.3,0.4,0.3
			c0.2,0,0.6,0,0.8,0c0.4,0,0.8,0,1.2-0.1c1,1.3,5.4,11.4,7.4,12.6c0.9,0.6,1.9,0.7,3.9,0.7h2.6c0.7,0,0.9-0.1,0.9-0.3
			C218.5,64,218.4,63.9,218.2,63.9z"/>
		<path class="st0" d="M253.1,63.9c-0.2,0-0.7,0-1.4-0.1c-0.9-0.1-2.6-0.7-4.5-2.6c-2.1-2.3-5.5-10.3-5.8-10.7c3-1.3,5-4.2,5-7.9
			c0-1.9-1-3.6-1.8-4.4c-0.6-0.6-2.2-2.1-6.8-2.1c-0.4,0-2,0-2.9,0c0,0,0,0,0,0h-3.5c0,0.1,0,0.3,0,0.4c0.2,1.5,0.2,21.3,0.2,21.3
			c0,2.7-0.1,5.3-0.2,6.2c0,0.1,0,0.3-0.1,0.4h3.5c0-0.1,0-0.3-0.1-0.4c-0.2-1.5-0.2-21.3-0.2-21.3c0-2.2,0-4.3,0.1-5.5
			c0.7,0,1.7,0,1.7,0c0.8,0,3.1-0.1,5,1.8c1.9,2,2,4.4,2,5.6c0,3.4-2.8,6-6.3,6c-0.8,0-1,0-1,0.3c0,0.2,0.2,0.3,0.4,0.3
			c0.2,0,0.6,0,0.8,0c0.4,0,0.8,0,1.2-0.1c1,1.3,5.5,11.4,7.4,12.6c0.9,0.6,1.9,0.7,3.9,0.7h2.6c0.7,0,0.9-0.1,0.9-0.3
			C253.4,64,253.2,63.9,253.1,63.9z"/>
		<path class="st0" d="M269.2,61.2c0-0.4-0.1-0.6-0.2-0.6c-0.1,0-0.2,0.1-0.2,0.3c0,0.3-0.2,1-0.3,1.2c-0.1,0.2-1,0.5-2.1,0.6
			c-0.3,0-2,0.1-2.1,0.1c-3.1,0-4.1-0.3-4.3-2c0-2.4,0-5.6,0-7.9V50c0-0.1,0.1-0.1,0.2-0.1c0.6,0,2.7,0.1,3.7,0.1l0,0
			c0,0,0.1,0,0.1,0c0.3,0,0.5,0,0.5,0c0,0,0,0,0,0c0.4,0,1,0,1.1,0c0.8,0.1,1.5,0.3,1.6,0.5c0.1,0.1,0.2,0.7,0.2,0.9
			c0,0.1,0,0.2,0.1,0.2c0.1,0,0.1-0.1,0.1-0.4v-4c0-0.3,0-0.4-0.1-0.4c-0.1,0-0.1,0.1-0.1,0.2c0,0.2-0.2,0.8-0.2,0.9
			c-0.1,0.1-0.8,0.4-1.6,0.5c-0.1,0-0.3,0-0.6,0c-1.7,0-4.5,0-4.9,0c-0.1,0-0.1,0-0.2-0.1v-1.2c0-3,0-7.6,0.1-9.8c0,0,0,0,0.1,0
			c0.4,0,4.5,0,5.1,0.1c1.1,0.1,2,0.5,2.1,0.6c0.1,0.2,0.3,0.9,0.3,1.2c0,0.2,0,0.3,0.2,0.3c0.1,0,0.2-0.2,0.2-0.6
			c0-1.2,0.1-2.5,0.1-3.1h-5.6c-0.7,0-1.4,0-2.3,0v0h-3.5c0,0.1,0,0.2,0.1,0.4c0.2,1.5,0.2,7.3,0.2,10.9v5.8c0,3.5,0,9.3-0.2,10.9
			c0,0.1,0,0.3-0.1,0.4h1.9v0h3.3c0.6,0,1.2,0,1.7,0h5.6C269.2,63.7,269.2,62.5,269.2,61.2z"/>
	</g>
	<path class="st0" d="M247.1,80.6v-9.3h1.2v9.3H247.1z"/>
	<path class="st0" d="M253.2,76.9v3.7H252v-9.3h4c2.3,0,3.1,1.2,3.1,2.8c0,1.2-0.5,2.2-1.7,2.6l2.2,3.8h-1.5l-2-3.7H253.2z
		 M257.7,74.1c0-0.9-0.3-1.7-1.9-1.7h-2.6v3.3h2.6C257.4,75.8,257.7,75,257.7,74.1z"/>
	<path class="st0" d="M268.3,76.4h-4.9v3.1h5.5v1.1h-6.8v-9.3h6.8v1.1h-5.5v2.8h4.9V76.4z"/>
	<rect y="0.6" class="st1" width="93.1" height="93.1"/>
	<path class="st2" d="M11,63.7C22.3,76,38.7,83,56,81c15.5-1.7,28.6-10.2,37.1-22.2v-3.7c-10.8,9.3-24.2,15.5-39.2,17.2
		C38.6,74,23.8,70.7,11,63.7z"/>
	<path class="st0" d="M123,71.1c0.9,0,1.9,0.1,2.8,0.5v1.1c-0.7-0.2-1.5-0.4-2.8-0.4c-2.3,0-3.1,1.8-3.1,3.7c0,1.8,0.7,3.7,3.1,3.7
		c1.3,0,2.1-0.2,2.8-0.4v1.1c-0.8,0.4-1.9,0.5-2.8,0.5c-3.1,0-4.4-2.1-4.4-4.8C118.6,73.2,119.8,71.1,123,71.1z"/>
	<path class="st0" d="M130,79.4h5.5v1.1h-6.8v-9.3h1.2V79.4z"/>
	<path class="st0" d="M138.6,80.6v-9.3h1.2v9.3H138.6z"/>
	<path class="st0" d="M150.6,80.6l-5.8-7l0,7h-1.2v-9.3h0.8l5.8,7l0-7h1.2v9.3H150.6z"/>
	<path class="st0" d="M155.1,80.6v-9.3h1.2v9.3H155.1z"/>
	<path class="st0" d="M165.9,80.5L165.9,80.5l5.2,1.1v1.3l-8.4-2.3c-2.2-0.6-2.9-2.3-2.9-4.7c0-2.8,1.1-4.8,4.3-4.8
		c3.2,0,4.3,2,4.3,4.8C168.4,78.1,167.7,79.8,165.9,80.5z M164.1,72.2c-2.5,0-3,1.6-3,3.7c0,2.1,0.5,3.7,3,3.7c2.5,0,3-1.6,3-3.7
		C167.1,73.8,166.6,72.2,164.1,72.2z"/>
	<path class="st0" d="M171.3,77.6v-6.3h1.3v6.3c0,1.5,1.1,2.1,2.7,2.1c1.6,0,2.7-0.6,2.7-2.1v-6.3h1.3v6.3c0,2-1.2,3.1-4,3.1
		C172.5,80.7,171.3,79.5,171.3,77.6z"/>
	<path class="st0" d="M188.6,76.4h-4.9v3.1h5.5v1.1h-6.8v-9.3h6.8v1.1h-5.5v2.8h4.9V76.4z"/>
	<path class="st0" d="M196.1,80.6v-9.3h3.1c3.2,0,4.5,1.8,4.5,4.6c0,2.8-1.3,4.6-4.5,4.6H196.1z M199.2,79.4c2.5,0,3.2-1.4,3.2-3.5
		c0-2.1-0.7-3.5-3.2-3.5h-1.9v7H199.2z"/>
	<path class="st0" d="M212.8,76.4h-4.9v3.1h5.5v1.1h-6.8v-9.3h6.8v1.1h-5.5v2.8h4.9V76.4z"/>
	<path class="st0" d="M223.5,80.6l-5.8-7l0,7h-1.2v-9.3h0.8l5.8,7l0-7h1.2v9.3H223.5z"/>
	<path class="st0" d="M231.5,72.4v8.1h-1.3v-8.1h-3.1v-1.1h7.5v1.1H231.5z"/>
	<path class="st0" d="M242.8,80.6l-0.9-2.2h-4.3l-0.8,2.2h-1.4l3.9-9.5h0.9l3.9,9.5H242.8z M238,77.4h3.6l-1.8-4.7L238,77.4z"/>
	<g>
		<path class="st0" d="M120.5,89.7v2.9h-1.1v-8.1h3.3c2,0,2.7,1.2,2.7,2.6c0,1.4-0.7,2.6-2.7,2.6H120.5z M124.3,87.1
			c0-0.8-0.2-1.6-1.6-1.6h-2.2v3.2h2.2C124,88.7,124.3,87.8,124.3,87.1z"/>
		<path class="st0" d="M131.3,92.7c-2.8,0-3.7-1.7-3.7-4.2c0-2.5,0.9-4.2,3.7-4.2c2.8,0,3.7,1.7,3.7,4.2
			C135,91,134.1,92.7,131.3,92.7z M131.3,85.3c-2.2,0-2.6,1.4-2.6,3.2c0,1.8,0.5,3.2,2.6,3.2c2.1,0,2.6-1.4,2.6-3.2
			C134,86.7,133.5,85.3,131.3,85.3z"/>
		<path class="st0" d="M137.6,89.9v-5.5h1.1v5.5c0,1.3,0.9,1.8,2.3,1.8c1.4,0,2.3-0.5,2.3-1.8v-5.5h1.1v5.5c0,1.7-1.1,2.7-3.5,2.7
			C138.7,92.7,137.6,91.7,137.6,89.9z"/>
		<path class="st0" d="M148.4,89.3v3.2h-1.1v-8.1h3.5c2,0,2.7,1,2.7,2.4c0,1.1-0.4,2-1.5,2.3l1.9,3.3h-1.3l-1.7-3.2H148.4z
			 M152.3,86.9c0-0.8-0.3-1.5-1.6-1.5h-2.3v2.9h2.3C152,88.4,152.3,87.7,152.3,86.9z"/>
		<path class="st0" d="M160,90.3v2.2h-0.8v-6.2h2.5c1.5,0,2.1,0.9,2.1,2c0,1.1-0.5,2-2.1,2H160z M162.8,88.3c0-0.6-0.2-1.2-1.2-1.2
			H160v2.5h1.7C162.7,89.6,162.8,88.9,162.8,88.3z"/>
		<path class="st0" d="M169.7,89.7h-3.3v2.1h3.7v0.8h-4.5v-6.2h4.5v0.8h-3.7V89h3.3V89.7z"/>
		<path class="st0" d="M174.8,87.1v5.5h-0.9v-5.5h-2.1v-0.8h5v0.8H174.8z"/>
		<path class="st0" d="M179,92.5v-6.2h0.8v6.2H179z"/>
		<path class="st0" d="M185,87.1v5.5h-0.9v-5.5H182v-0.8h5.1v0.8H185z"/>
		<path class="st0" d="M190.8,89c1.8,0.2,2.4,0.6,2.4,1.8c0,1.1-0.7,1.9-2.7,1.9c-0.6,0-1.7-0.2-2-0.3v-0.7c0.4,0.2,1.1,0.3,2.1,0.3
			c1.4,0,1.9-0.4,1.9-1.2c0-0.7-0.4-0.9-1.6-1c-1.8-0.2-2.4-0.6-2.4-1.6c0-1.1,0.7-1.9,2.6-1.9c0.6,0,1.4,0.1,2,0.3v0.7
			c-0.5-0.2-1.1-0.3-2-0.3c-1.3,0-1.8,0.3-1.8,1.1C189.1,88.7,189.6,88.9,190.8,89z"/>
		<path class="st0" d="M203.4,89.2h-3.8v2.4h4.3v0.9h-5.3v-7.3h5.3v0.9h-4.3v2.2h3.8V89.2z"/>
		<path class="st0" d="M209.3,86.1v6.4h-1v-6.4h-2.4v-0.9h5.9v0.9H209.3z"/>
		<path class="st0" d="M220.9,91.7c0.7,0,1.3-0.1,1.8-0.2v-2.2H221v-1h2.8v3.8c-0.6,0.3-1.9,0.5-2.9,0.5c-2.7,0-3.8-1.9-3.8-4.2
			c0-2.3,1.1-4.2,3.8-4.2c1,0,2.1,0.2,2.7,0.5v1c-0.6-0.2-1.4-0.5-2.7-0.5c-2,0-2.7,1.6-2.7,3.2C218.2,90.1,218.8,91.7,220.9,91.7z"
			/>
		<path class="st0" d="M227.7,89.3v3.2h-1.1v-8.1h3.5c2,0,2.7,1,2.7,2.4c0,1.1-0.4,2-1.5,2.3l1.9,3.3h-1.3l-1.7-3.2H227.7z
			 M231.6,86.9c0-0.8-0.3-1.5-1.6-1.5h-2.3v2.9h2.3C231.4,88.4,231.6,87.7,231.6,86.9z"/>
		<path class="st0" d="M241.2,92.5l-0.7-1.9h-3.8l-0.7,1.9h-1.2l3.4-8.2h0.8l3.4,8.2H241.2z M237,89.8h3.1l-1.5-4.1L237,89.8z"/>
		<path class="st0" d="M250.6,92.5l-5-6.1l0,6.1h-1.1v-8.1h0.7l5,6.1l0-6.1h1.1v8.1H250.6z"/>
		<path class="st0" d="M254.2,92.5v-8.1h2.7c2.8,0,3.9,1.6,3.9,4c0,2.5-1.1,4-3.9,4H254.2z M257,91.5c2.1,0,2.8-1.2,2.8-3
			c0-1.8-0.6-3-2.8-3h-1.7v6.1H257z"/>
		<path class="st0" d="M266.5,87.9c2.3,0.2,3.1,0.8,3.1,2.3c0,1.4-0.9,2.5-3.5,2.5c-0.8,0-2.1-0.2-2.6-0.4v-0.9
			c0.5,0.2,1.5,0.4,2.7,0.4c1.8,0,2.4-0.6,2.4-1.5c0-0.9-0.5-1.2-2.1-1.4c-2.3-0.2-3.1-0.7-3.1-2.1c0-1.4,0.9-2.4,3.3-2.4
			c0.8,0,1.9,0.1,2.6,0.4v0.9c-0.6-0.2-1.5-0.4-2.6-0.4c-1.7,0-2.3,0.4-2.3,1.5C264.3,87.6,264.9,87.8,266.5,87.9z"/>
	</g>
</g>
</svg>
